{
  "db": "SQLite",
  "1962925ef08a58e42aa108b66a61942484894c6329e3c7f65948f39cc4e43e21": {
    "describe": {
      "columns": [
        {
          "name": "db_id!: DBUuid",
          "ordinal": 0,
          "type_info": "Null"
        },
        {
          "name": "email",
          "ordinal": 1,
          "type_info": "Text"
        },
        {
          "name": "password",
          "ordinal": 2,
          "type_info": "Text"
        },
        {
          "name": "db_public_key!:DBBinary",
          "ordinal": 3,
          "type_info": "Null"
        },
        {
          "name": "db_encryption_key!: DBBinary",
          "ordinal": 4,
          "type_info": "Null"
        },
        {
          "name": "db_encryption_key_nonce!: DBBinary",
          "ordinal": 5,
          "type_info": "Null"
        },
        {
          "name": "db_encryption_salt!: DBBinary",
          "ordinal": 6,
          "type_info": "Null"
        },
        {
          "name": "db_private_key!: DBBinary",
          "ordinal": 7,
          "type_info": "Null"
        },
        {
          "name": "db_private_key_nonce!: DBBinary",
          "ordinal": 8,
          "type_info": "Null"
        }
      ],
      "nullable": [
        false,
        false,
        false,
        false,
        false,
        false,
        false,
        false,
        false
      ],
      "parameters": {
        "Right": 1
      }
    },
    "query": "SELECT id as \"db_id!: DBUuid\", email, password, public_key as 'db_public_key!:DBBinary',\n             encryption_key as 'db_encryption_key!: DBBinary',\n             encryption_key_nonce as 'db_encryption_key_nonce!: DBBinary',\n             encryption_salt as 'db_encryption_salt!: DBBinary',\n             private_key as 'db_private_key!: DBBinary',\n             private_key_nonce as 'db_private_key_nonce!: DBBinary'\n             FROM users WHERE email =?"
  },
  "319ff2599464aa41d76bba38c2f054d0fa66f98b551fd6b1e4061ea510b5a3a5": {
    "describe": {
      "columns": [],
      "nullable": [],
      "parameters": {
        "Right": 6
      }
    },
    "query": "UPDATE users SET password = ?, encryption_key =?,encryption_key_nonce =?, encryption_salt= ?, login_salt=? WHERE id = ?"
  },
  "442f81b33bf0350b2608d95919fe4ea4c5fc6743d9f8935d6470bf8ae383ddd5": {
    "describe": {
      "columns": [
        {
          "name": "db_id!: DBUuid",
          "ordinal": 0,
          "type_info": "Null"
        },
        {
          "name": "created",
          "ordinal": 1,
          "type_info": "Text"
        },
        {
          "name": "last_updated",
          "ordinal": 2,
          "type_info": "Text"
        },
        {
          "name": "finished",
          "ordinal": 3,
          "type_info": "Int64"
        },
        {
          "name": "db_data!:DBBinary",
          "ordinal": 4,
          "type_info": "Null"
        }
      ],
      "nullable": [
        false,
        false,
        false,
        false,
        false
      ],
      "parameters": {
        "Right": 2
      }
    },
    "query": "SELECT id as \"db_id!: DBUuid\", created, last_updated, finished, data as 'db_data!:DBBinary' FROM todo WHERE id = ? AND user_id = ?"
  },
  "636dcd2885898161002a94987354c5e67bd1647c2722884f03d85df89163bbae": {
    "describe": {
      "columns": [],
      "nullable": [],
      "parameters": {
        "Right": 2
      }
    },
    "query": "UPDATE users SET email = ? WHERE id = ?"
  },
  "73ffdf5be39aa5c4c160c2f77d6634a6970eeb4e1d3395f045ded747f0ce9d2a": {
    "describe": {
      "columns": [],
      "nullable": [],
      "parameters": {
        "Right": 1
      }
    },
    "query": "DELETE FROM users WHERE id = ?"
  },
  "7a27494a4b4e133ae397667b6cdde7ae9ef137c4db884c67229f0a9811d1e109": {
    "describe": {
      "columns": [
        {
          "name": "db_id!: DBUuid",
          "ordinal": 0,
          "type_info": "Null"
        },
        {
          "name": "email",
          "ordinal": 1,
          "type_info": "Text"
        },
        {
          "name": "password",
          "ordinal": 2,
          "type_info": "Text"
        },
        {
          "name": "db_public_key!:DBBinary",
          "ordinal": 3,
          "type_info": "Null"
        },
        {
          "name": "db_encryption_key!: DBBinary",
          "ordinal": 4,
          "type_info": "Null"
        },
        {
          "name": "db_encryption_key_nonce!: DBBinary",
          "ordinal": 5,
          "type_info": "Null"
        },
        {
          "name": "db_encryption_salt!: DBBinary",
          "ordinal": 6,
          "type_info": "Null"
        },
        {
          "name": "db_private_key!: DBBinary",
          "ordinal": 7,
          "type_info": "Null"
        },
        {
          "name": "db_private_key_nonce!: DBBinary",
          "ordinal": 8,
          "type_info": "Null"
        }
      ],
      "nullable": [
        false,
        false,
        false,
        false,
        false,
        false,
        false,
        false,
        false
      ],
      "parameters": {
        "Right": 1
      }
    },
    "query": "SELECT id as \"db_id!: DBUuid\", email, password, public_key as 'db_public_key!:DBBinary',\n             encryption_key as 'db_encryption_key!: DBBinary',\n             encryption_key_nonce as 'db_encryption_key_nonce!: DBBinary',\n             encryption_salt as 'db_encryption_salt!: DBBinary',\n             private_key as 'db_private_key!: DBBinary',\n             private_key_nonce as 'db_private_key_nonce!: DBBinary'\n             FROM users WHERE id=?"
  },
  "87d77f8b6096375e35c735b50ccbe844ea31da10be62c6e13fb3baaf3a0df89d": {
    "describe": {
      "columns": [],
      "nullable": [],
      "parameters": {
        "Right": 10
      }
    },
    "query": "INSERT INTO users (id, password, email, public_key, encryption_key, encryption_key_nonce, encryption_salt, private_key, private_key_nonce, login_salt)VALUES ($1, $2, $3, $4, $5, $6, $7, $8, $9, $10)"
  },
  "8ab869259c4b636246569f56fb77c718a406cfb85144a178223798aacadbb7bf": {
    "describe": {
      "columns": [
        {
          "name": "salt!: DBBinary",
          "ordinal": 0,
          "type_info": "Null"
        }
      ],
      "nullable": [
        false
      ],
      "parameters": {
        "Right": 1
      }
    },
    "query": "SELECT login_salt as \"salt!: DBBinary\" FROM users WHERE email = ?"
  },
  "8e2a05c52d019543ac27dce7714c22ceb7036af80eb66b0e965bdeae99526868": {
    "describe": {
      "columns": [
        {
          "name": "salt!: DBBinary",
          "ordinal": 0,
          "type_info": "Null"
        }
      ],
      "nullable": [
        false
      ],
      "parameters": {
        "Right": 1
      }
    },
    "query": "SELECT login_salt as \"salt!: DBBinary\" FROM users WHERE id = ?"
  },
  "92a3aa36fb20ebe8572d35a4ffbd49d3dfebedcf7e1510cab4d756fa0f31d5b2": {
    "describe": {
      "columns": [],
      "nullable": [],
      "parameters": {
        "Right": 6
      }
    },
    "query": "INSERT INTO todo (id, user_id, created, last_updated, finished, data) VALUES ($1, $2, $3, $4, $5, $6)"
  },
  "e8278d504de9f99594eadbb61ae257b13365779bc22c428b3ae87b58c7095402": {
    "describe": {
      "columns": [
        {
          "name": "db_id!: DBUuid",
          "ordinal": 0,
          "type_info": "Null"
        },
        {
          "name": "created",
          "ordinal": 1,
          "type_info": "Text"
        },
        {
          "name": "last_updated",
          "ordinal": 2,
          "type_info": "Text"
        },
        {
          "name": "finished",
          "ordinal": 3,
          "type_info": "Int64"
        },
        {
          "name": "db_data!:DBBinary",
          "ordinal": 4,
          "type_info": "Null"
        }
      ],
      "nullable": [
        false,
        false,
        false,
        false,
        false
      ],
      "parameters": {
        "Right": 1
      }
    },
    "query": "SELECT id as \"db_id!: DBUuid\", created, last_updated, finished, data as 'db_data!:DBBinary' FROM todo WHERE user_id = ?"
  }
}